Do Physical Characteristics Predict Battle Characteristics in Pokemon?
…
knn_grid <- tibble(
  neighbors = seq(1, 51, by = 5)
)

knn_tune <- tune_grid(
  knn_wflow,
  resamples = pokemon_folds,
  grid = knn_grid,
  metrics = metric_set(rmse, rsq)
)

knn_tune |>
  collect_metrics()

# A tibble: 22 × 7
   neighbors .metric .estimator   mean     n std_err .config              
       <dbl> <chr>   <chr>       <dbl> <int>   <dbl> <chr>                
 1         1 rmse    standard   54.6       5 2.43    Preprocessor1_Model01
 2         1 rsq     standard    0.274     5 0.0216  Preprocessor1_Model01
 3         6 rmse    standard   42.4       5 1.20    Preprocessor1_Model02
 4         6 rsq     standard    0.417     5 0.0131  Preprocessor1_Model02
 5        11 rmse    standard   41.4       5 1.21    Preprocessor1_Model03
 6        11 rsq     standard    0.436     5 0.00998 Preprocessor1_Model03
 7        16 rmse    standard   40.9       5 1.27    Preprocessor1_Model04
 8        16 rsq     standard    0.447     5 0.00944 Preprocessor1_Model04
 9        21 rmse    standard   40.8       5 1.29    Preprocessor1_Model05
10        21 rsq     standard    0.450     5 0.0102  Preprocessor1_Model05
# ℹ 12 more rows
…
